{
   "version" : 2,
   "workers" : [
      {
         "type" : "router",
         "realms" : [
            {
               "roles" : [
                  {
                     "name" : "anonymous",
                     "permissions" : [
                        {
                           "match" : "prefix",
                           "allow" : {
                              "call" : true,
                              "register" : false,
                              "subscribe" : true,
                              "publish" : false
                           },
                           "disclose" : {
                              "caller" : true,
                              "publisher" : false
                           },
                           "cache" : true,
                           "uri" : "memexdb.public"
                        }
                     ]
                  },
                  {
                     "name" : "backend",
                     "permissions" : [
                        {
                           "uri" : "",
                           "cache" : true,
                           "allow" : {
                              "call" : true,
                              "register" : true,
                              "subscribe" : true,
                              "publish" : true
                           },
                           "disclose" : {
                              "caller" : false,
                              "publisher" : false
                           },
                           "match" : "prefix"
                        },
                        {
                           "match" : "exact",
                           "allow" : {
                              "publish" : false,
                              "call" : false,
                              "register" : false
                           },
                           "disclose" : {
                              "caller" : false,
                              "publisher" : false
                           },
                           "cache" : true,
                           "uri" : "memexdb.topic2"
                        }
                     ]
                  },
                  {
                     "permissions" : [
                        {
                           "cache" : true,
                           "uri" : "memexdb.add2",
                           "match" : "exact",
                           "allow" : {
                              "publish" : false,
                              "call" : true,
                              "register" : false,
                              "subscribe" : false
                           },
                           "disclose" : {
                              "publisher" : false,
                              "caller" : false
                           }
                        },
                        {
                           "allow" : {
                              "call" : false,
                              "register" : false,
                              "subscribe" : false,
                              "publish" : true
                           },
                           "disclose" : {
                              "caller" : false,
                              "publisher" : false
                           },
                           "match" : "prefix",
                           "uri" : "memexdb.",
                           "cache" : true
                        },
                        {
                           "disclose" : {
                              "publisher" : false,
                              "caller" : false
                           },
                           "allow" : {
                              "register" : false,
                              "call" : false,
                              "subscribe" : false,
                              "publish" : false
                           },
                           "match" : "exact",
                           "uri" : "memexdb.topic2",
                           "cache" : true
                        },
                        {
                           "cache" : true,
                           "uri" : "com.foobar.topic1",
                           "match" : "exact",
                           "allow" : {
                              "publish" : true,
                              "subscribe" : false,
                              "register" : false,
                              "call" : false
                           },
                           "disclose" : {
                              "caller" : false,
                              "publisher" : false
                           }
                        }
                     ],
                     "name" : "frontend"
                  }
               ],
               "name" : "memexdb"
            }
         ],
         "components" : [],
         "options" : {
            "pythonpath" : [
               "."
            ]
         },
         "transports" : [
            {
               "paths" : {
                  "model" : {
                     "paths" : {
                        "/" : {
                           "port" : 7001,
                           "host" : "localhost",
                           "type" : "reverseproxy"
                        },
                        "lod" : {
                           "port" : 7006,
                           "type" : "reverseproxy",
                           "host" : "localhost"
                        }
                     },
                     "type" : "path"
                  },
                  "hubot" : {
                     "port" : 7000,
                     "type" : "reverseproxy",
                     "host" : "localhost"
                  },
                  "graph" : {
                     "paths" : {
                        "ql" : {
                           "type" : "reverseproxy",
                           "host" : "localhost",
                           "port" : 7003
                        },
                        "/" : {
                           "type" : "reverseproxy",
                           "host" : "localhost",
                           "port" : 7001
                        },
                        "que" : {
                           "port" : 7009,
                           "type" : "reverseproxy",
                           "host" : "localhost"
                        },
                        "web" : {
                           "port" : 7005,
                           "host" : "localhost",
                           "type" : "reverseproxy"
                        },
                        "tab" : {
                           "type" : "reverseproxy",
                           "host" : "localhost",
                           "port" : 7002
                        },
                        "iql" : {
                           "type" : "reverseproxy",
                           "host" : "localhost",
                           "port" : 7003
                        },
                        "bag" : {
                           "port" : 7004,
                           "host" : "localhost",
                           "type" : "reverseproxy"
                        }
                     },
                     "type" : "path"
                  },
                  "daten" : {
                     "paths" : {
                        "/" : {
                           "port" : 7001,
                           "type" : "reverseproxy",
                           "host" : "localhost"
                        },
                        "bag" : {
                           "port" : 7004,
                           "host" : "localhost",
                           "type" : "reverseproxy"
                        },
                        "tab" : {
                           "port" : 7002,
                           "type" : "reverseproxy",
                           "host" : "localhost"
                        }
                     },
                     "type" : "path"
                  },
                  "knows" : {
                     "type" : "path",
                     "paths" : {
                        "tpf" : {
                           "path" : "/",
                           "port" : 7009,
                           "host" : "localhost",
                           "type" : "reverseproxy"
                        },
                        "rdf" : {
                           "type" : "reverseproxy",
                           "host" : "localhost",
                           "port" : 7005,
                           "path" : "/"
                        },
                        "qpf" : {
                           "port" : 7009,
                           "path" : "/",
                           "type" : "reverseproxy",
                           "host" : "localhost"
                        },
                        "hdt" : {
                           "path" : "/",
                           "port" : 7008,
                           "host" : "localhost",
                           "type" : "reverseproxy"
                        },
                        "owl" : {
                           "path" : "/",
                           "port" : 7007,
                           "host" : "localhost",
                           "type" : "reverseproxy"
                        },
                        "/" : {
                           "host" : "localhost",
                           "type" : "reverseproxy",
                           "port" : 7001
                        }
                     }
                  },
                  "crawl" : {
                     "type" : "reverseproxy",
                     "host" : "localhost",
                     "port" : 6800,
                     "path" : "/"
                  },
                  "/" : {
                     "host" : "localhost",
                     "type" : "reverseproxy",
                     "port" : 7001
                  },
                  "nerve" : {
                     "paths" : {
                        "bag" : {
                           "host" : "localhost",
                           "type" : "reverseproxy",
                           "port" : 7004
                        },
                        "lod" : {
                           "port" : 7007,
                           "host" : "localhost",
                           "type" : "reverseproxy"
                        },
                        "sck" : {
                           "serializers" : [
                              "json"
                           ],
                           "type" : "websocket"
                        },
                        "tab" : {
                           "port" : 7002,
                           "host" : "localhost",
                           "type" : "reverseproxy"
                        },
                        "/" : {
                           "host" : "localhost",
                           "type" : "reverseproxy",
                           "port" : 7001
                        }
                     },
                     "type" : "path"
                  }
               },
               "endpoint" : {
                  "port" : 4747,
                  "type" : "tcp"
               },
               "type" : "web"
            }
         ]
      },
      {
         "type" : "guest",
         "executable" : "graphql-rest-proxy",
         "options" : {
            "env" : {
               "vars" : {
                  "PORT" : "7676"
               },
               "inherit" : true
            },
            "workdir" : "."
         },
         "arguments" : [
            "specs/gql/proxy.graphql",
            "-b","/graph/api"
         ]
       },
       {
          "type" : "guest",
          "executable" : "json-graphql-server",
          "options" : {
             "env" : {
                "vars" : {
                   "PORT" : "7777"
                },
                "inherit" : true
             },
             "workdir" : "."
          },
          "arguments" : [
             "specs/dat/flatten.json"
          ]
        },
        {
           "type" : "guest",
           "executable" : "yaml-server",
           "options" : {
              "env" : {
                 "vars" : {
                    "PORT" : "6666"
                 },
                 "inherit" : true
              },
              "workdir" : "."
           },
           "arguments" : [
              "specs/dat/flatten.json"
           ]
         },
         {
            "type" : "guest",
            "executable" : "trifid",
            "options" : {
               "env" : {
                  "vars" : {
                     "PORT" : "5757"
                  },
                  "inherit" : true
               },
               "workdir" : "."
            },
            "arguments" : [
               "-p","5757",
               "--dataset-base-url","/daten/lod",
               "--sparql-endpoint-url","http://localhost:4747/nerve/lod/query"
               "-c","specs/lod/trifid.json"
            ]
          },
          {
             "type" : "guest",
             "executable" : "parse-server",
             "options" : {
                "env" : {
                   "vars" : {
                      "PORT" : "7575"
                   },
                   "inherit" : true
                },
                "workdir" : "."
             },
             "arguments" : [
                "--port","7575",
                "--appId","gestalt",
                "--masterKey","0f84ffdc-feaf-45c5-a87a-2150a40b71fc",
                "--serverURL","http://localhost:7575/model/rpc",
                "--mountPath","/modele/rpc",
                "--graphQLPath","/model/api",
                "--playgroundPath","/model/web",
                "--cloud","specs/cloud.js",
                "--graphQLSchema","specs/orm/schema.graphql"
             ]
      }
   ]
}
